Handle,Title,Body (HTML),Vendor,Type,Tags,Published,Option1 Name,Option1 Value,Option2 Name,Option2 Value,Option3 Name,Option3 Value,Variant SKU,Variant Grams,Variant Inventory Tracker,Variant Inventory Qty,Variant Inventory Policy,Variant Fulfillment Service,Variant Price,Variant Compare At Price,Variant Requires Shipping,Variant Taxable,Variant Barcode,Image Src,Image Position,Image Alt Text,Gift Card,SEO Title,SEO Description,Google Shopping / Google Product Category,Google Shopping / Gender,Google Shopping / Age Group,Google Shopping / MPN,Google Shopping / AdWords Grouping,Google Shopping / AdWords Labels,Google Shopping / Condition,Google Shopping / Custom Product,Google Shopping / Custom Label 0,Google Shopping / Custom Label 1,Google Shopping / Custom Label 2,Google Shopping / Custom Label 3,Google Shopping / Custom Label 4,Variant Image,Variant Weight Unit,Variant Tax Code
shirt-polar-blue-2,Shirt polar blue,"<meta charset=""utf-8""><span>Totam aperiam, eaque ipsa quae ab illo inventore veritatis</span>",Cosre,bag,"",true,Title,Default Title,,,,,"",0,,1,deny,manual,270.00,,true,true,"",https://cdn.shopify.com/s/files/1/2205/2399/products/home_category_pd4.jpg?v=1509782099,1,,false,,,,,,,,,,,,,,,,,kg,
shirt-polar-blue-1,Shirt polar blue,"<meta charset=""utf-8""><span>Totam aperiam, eaque ipsa quae ab illo inventore veritatis</span>",Cosre,bag,"",true,Title,Default Title,,,,,"",0,,1,deny,manual,270.00,,true,true,"",https://cdn.shopify.com/s/files/1/2205/2399/products/home_category_pd3.jpg?v=1509782080,1,,false,,,,,,,,,,,,,,,,,kg,
copy-of-shirt-polar-blue,Shirt polar blue,"<meta charset=""utf-8""><span>Totam aperiam, eaque ipsa quae ab illo inventore veritatis</span>",Cosre,bag,"",true,Title,Default Title,,,,,"",0,,1,deny,manual,270.00,,true,true,"",https://cdn.shopify.com/s/files/1/2205/2399/products/home_category_pd2.jpg?v=1509782046,1,,false,,,,,,,,,,,,,,,,,kg,
shirt-polar-blue,Shirt polar blue,"<meta charset=""utf-8""><span>Totam aperiam, eaque ipsa quae ab illo inventore veritatis</span>",Cosre,coat,"",true,Title,Default Title,,,,,"",0,,1,deny,manual,270.00,,true,true,"",https://cdn.shopify.com/s/files/1/2205/2399/products/home_category_pd1.jpg?v=1509782024,1,,false,,,,,,,,,,,,,,,,,kg,
the-turtleneck,The Turtleneck,"<meta charset=""utf-8""><span>Totam aperiam, eaque ipsa quae ab illo inventore veritatis</span>",Cosre,shirts,"",true,Title,Default Title,,,,,"",0,,1,deny,manual,295.00,,true,true,"",https://cdn.shopify.com/s/files/1/2205/2399/products/shortshirt.jpg?v=1508830085,1,,false,,,,,,,,,,,,,,,,,kg,
tia-slides-in-brandy-1,Tia Slides in Brandy,"<meta charset=""utf-8""><span>Totam aperiam, eaque ipsa quae ab illo inventore veritatis</span>",Cosre,sweater,"",true,Title,Default Title,,,,,"",0,,1,deny,manual,295.00,,true,true,"",https://cdn.shopify.com/s/files/1/2205/2399/products/mixhoodie.jpg?v=1508829771,1,,false,,,,,,,,,,,,,,,,,kg,
bells-of-ireland-jumpsuit-1,Bells of Ireland Jumpsuit,"<meta charset=""utf-8""><span>Totam aperiam, eaque ipsa quae ab illo inventore veritatis</span>",Cosre,shoes,"",true,Title,Default Title,,,,,'004003,0,,1,deny,manual,295.00,,true,true,"",https://cdn.shopify.com/s/files/1/2205/2399/products/casual_shoes.jpg?v=1508829703,1,,false,,,,,,,,,,,,,,,,,kg,
small-ceramic-sky-planter,Small Ceramic Sky Planter,"<meta charset=""utf-8""><span>Totam aperiam, eaque ipsa quae ab illo inventore veritatis</span>",Cosre,sweater,"",true,Title,Default Title,,,,,"",0,,1,deny,manual,295.00,,true,true,"",https://cdn.shopify.com/s/files/1/2205/2399/products/hoodie_miltary.jpg?v=1508829665,1,,false,,,,,,,,,,,,,,,,,kg,
olive-tylon-zip-jogger,Olive Tylon Zip Jogger,"<meta charset=""utf-8""><span>Totam aperiam, eaque ipsa quae ab illo inventore veritatis</span>",Cosre,sock,"",true,Title,Default Title,,,,,"",0,,1,deny,manual,295.00,,true,true,"",https://cdn.shopify.com/s/files/1/2205/2399/products/sock.jpg?v=1508829612,1,,false,,,,,,,,,,,,,,,,,kg,
glacier-park-blanket,Glacier Park Blanket,"<meta charset=""utf-8""><span>Totam aperiam, eaque ipsa quae ab illo inventore veritatis</span>",Cosre,coach,"",true,Title,Default Title,,,,,"",0,,1,deny,manual,295.00,,true,true,"",https://cdn.shopify.com/s/files/1/2205/2399/products/long_coat_y.jpg?v=1508829580,1,,false,,,,,,,,,,,,,,,,,kg,
alabama-tee-1,Alabama Tee,"<meta charset=""utf-8""><span>Totam aperiam, eaque ipsa quae ab illo inventore veritatis</span>",Cosre,bag,"",true,Title,Default Title,,,,,'004001,0,,1,deny,manual,295.00,,true,true,"",https://cdn.shopify.com/s/files/1/2205/2399/products/bag_2.jpg?v=1508829494,1,,false,,,,,,,,,,,,,,,,,kg,
flannel-button-under-1,Flannel Button Under,"<meta charset=""utf-8""><span>Totam aperiam, eaque ipsa quae ab illo inventore veritatis</span>",Cosre,sunglasses,"",true,Title,Default Title,,,,,"",0,,1,deny,manual,295.00,,true,true,"",https://cdn.shopify.com/s/files/1/2205/2399/products/sunglasses_2.jpg?v=1508829414,1,,false,,,,,,,,,,,,,,,,,kg,
dot-drop-earrings,Dot Drop Earrings,"<meta charset=""utf-8""><span>Totam aperiam, eaque ipsa quae ab illo inventore veritatis</span>",Cosre,shoes,sale,true,Title,Default Title,,,,,"",0,,1,deny,manual,295.00,400.00,true,true,"",https://cdn.shopify.com/s/files/1/2205/2399/products/sneaker.jpg?v=1508829297,1,,false,,,,,,,,,,,,,,,,,kg,
rose-gold-natural-band-watch,Rose Gold/Natural Band Watch,"<meta charset=""utf-8""><span>Totam aperiam, eaque ipsa quae ab illo inventore veritatis</span>",Cosre,Hat,sale,true,Title,Default Title,,,,,"",0,,1,deny,manual,295.00,400.00,true,true,"",https://cdn.shopify.com/s/files/1/2205/2399/products/hat_2.jpg?v=1508829243,1,,false,,,,,,,,,,,,,,,,,kg,
large-cube-planter-1,Large Cube Planter,"Constructed in cotton sweat fabric, this lovely piece, lacus eu mattis auctor, dolor lectus venenatis nulla, at tristique eros sem vel ante. Sed leo enim, iaculis ornare tristique non, vulputate sit amet ante. Mauris placerat eleifend leo",Cosre,"","",true,Title,Default Title,,,,,"",0,,1,deny,manual,295.00,,true,true,"",https://cdn.shopify.com/s/files/1/2205/2399/products/sweater_w.jpg?v=1509519331,1,,false,,,,,,,,,,,,,,,,,kg,
large-cube-planter-1,,,,,,,,,,,,,,,,,,,,,,,,https://cdn.shopify.com/s/files/1/2205/2399/products/26868_8ba921bcbf-26874_886c1b3459-g50997861o-original8.jpg?v=1509519331,2,,,,,,,,,,,,,,,,,,,,
large-cube-planter-1,,,,,,,,,,,,,,,,,,,,,,,,https://cdn.shopify.com/s/files/1/2205/2399/products/26868_d3ebd48a75-26874_886c1b3459-g50997861o-original7.jpg?v=1509519331,3,,,,,,,,,,,,,,,,,,,,
large-cube-planter-1,,,,,,,,,,,,,,,,,,,,,,,,https://cdn.shopify.com/s/files/1/2205/2399/products/26868_d3ebd48a75-26874_886c1b3459-g50997861o-original7_1.jpg?v=1509519331,4,,,,,,,,,,,,,,,,,,,,
denali-blanket-scarf-1,Denali Blanket Scarf,"Constructed in cotton sweat fabric, this lovely piece, lacus eu mattis auctor, dolor lectus venenatis nulla, at tristique eros sem vel ante. Sed leo enim, iaculis ornare tristique non, vulputate sit amet ante. Mauris placerat eleifend leo.",Cosre,"","",true,Size,S,Color,White,,,"",0,,1,deny,manual,275.00,300.00,true,true,"",https://cdn.shopify.com/s/files/1/2205/2399/products/Goded-Sweater-White_1.jpg?v=1508493159,1,,false,,,,,,,,,,,,,,,,,kg,
denali-blanket-scarf-1,,,,,,,,S,,Black,,,"",0,,0,deny,manual,275.00,300.00,true,true,"",https://cdn.shopify.com/s/files/1/2205/2399/products/Goded-Sweater-White2.jpg?v=1508493159,2,,,,,,,,,,,,,,,,,,,kg,
denali-blanket-scarf-1,,,,,,,,M,,White,,,"",0,,0,deny,manual,275.00,300.00,true,true,"",https://cdn.shopify.com/s/files/1/2205/2399/products/Goded-Sweater-White.jpg?v=1508493159,3,,,,,,,,,,,,,,,,,,,kg,
denali-blanket-scarf-1,,,,,,,,M,,Black,,,"",0,,0,deny,manual,275.00,300.00,true,true,"",,,,,,,,,,,,,,,,,,,,,kg,
denali-blanket-scarf-1,,,,,,,,L,,White,,,"",0,,0,deny,manual,275.00,300.00,true,true,"",,,,,,,,,,,,,,,,,,,,,kg,
denali-blanket-scarf-1,,,,,,,,L,,Black,,,"",0,,0,deny,manual,275.00,300.00,true,true,"",,,,,,,,,,,,,,,,,,,,,kg,
large-cube-planter,Large Cube Planter,"Constructed in cotton sweat fabric, this lovely piece, lacus eu mattis auctor, dolor lectus venenatis nulla, at tristique eros sem vel ante. Sed leo enim, iaculis ornare tristique non, vulputate sit amet ante. Mauris placerat eleifend leo.",Cosre,"","",true,Title,Default Title,,,,,"",0,shopify,0,deny,manual,295.00,,true,true,"",https://cdn.shopify.com/s/files/1/2205/2399/products/sunglasses_1.jpg?v=1509781521,1,,false,,,,,,,,,,,,,,,,,kg,
flannel-button-under,Flannel Button Under,"Constructed in cotton sweat fabric, this lovely piece, lacus eu mattis auctor, dolor lectus venenatis nulla, at tristique eros sem vel ante. Sed leo enim, iaculis ornare tristique non, vulputate sit amet ante. Mauris placerat eleifend leo.",Cosre,"","",true,Title,Default Title,,,,,"",0,,1,deny,manual,295.00,,true,true,"",https://cdn.shopify.com/s/files/1/2205/2399/products/Inger-Hawaii_1.jpg?v=1508492609,1,,false,,,,,,,,,,,,,,,,,kg,
flannel-button-under,,,,,,,,,,,,,,,,,,,,,,,,https://cdn.shopify.com/s/files/1/2205/2399/products/Inger-Hawaii.jpg?v=1508492610,2,,,,,,,,,,,,,,,,,,,,
denali-blanket-scarf,Denali Blanket Scarf,"Constructed in cotton sweat fabric, this lovely piece, lacus eu mattis auctor, dolor lectus venenatis nulla, at tristique eros sem vel ante. Sed leo enim, iaculis ornare tristique non, vulputate sit amet ante. Mauris placerat eleifend leo.",Cosre,"","",true,Color,Red,,,,,"",0,,1,deny,manual,295.00,400.00,true,true,"",https://cdn.shopify.com/s/files/1/2205/2399/products/Ecread-Lennon_1.jpg?v=1509781920,1,,false,,,,,,,,,,,,,,,,https://cdn.shopify.com/s/files/1/2205/2399/products/Ecread-Lennon2.jpg?v=1509781920,kg,
denali-blanket-scarf,,,,,,,,White,,,,,"",0,,0,deny,manual,295.00,400.00,true,true,"",https://cdn.shopify.com/s/files/1/2205/2399/products/Ecread-Lennon2.jpg?v=1509781920,2,,,,,,,,,,,,,,,,,,https://cdn.shopify.com/s/files/1/2205/2399/products/Ecread-Lennon3.jpg?v=1509781920,kg,
denali-blanket-scarf,,,,,,,,Black,,,,,"",0,,0,deny,manual,295.00,400.00,true,true,"",https://cdn.shopify.com/s/files/1/2205/2399/products/Ecread-Lennon3.jpg?v=1509781920,3,,,,,,,,,,,,,,,,,,https://cdn.shopify.com/s/files/1/2205/2399/products/Ecread-Lennon_1.jpg?v=1509781920,kg,
denali-blanket-scarf,,,,,,,,,,,,,,,,,,,,,,,,https://cdn.shopify.com/s/files/1/2205/2399/products/Ecread-Lennon.jpg?v=1509781920,4,,,,,,,,,,,,,,,,,,,,
alabama-tee,Alabama Tee,"Constructed in cotton sweat fabric, this lovely piece, lacus eu mattis auctor, dolor lectus venenatis nulla, at tristique eros sem vel ante. Sed leo enim, iaculis ornare tristique non, vulputate sit amet ante. Mauris placerat eleifend leo.",Cosre,sweater,"$200-$300, Blue, Hoodie, sale, Sweater, XL",true,Size,S,Color,Blue,,,'004004,0,shopify,0,deny,manual,295.00,400.00,true,true,"",https://cdn.shopify.com/s/files/1/2205/2399/products/mixhoodie_6df3ee92-c4fc-4f15-8a82-adafe2b92310.jpg?v=1509703933,1,,false,,,,,,,,,,,,,,,,https://cdn.shopify.com/s/files/1/2205/2399/products/mixhoodie_6df3ee92-c4fc-4f15-8a82-adafe2b92310.jpg?v=1509703933,kg,
alabama-tee,,,,,,,,S,,Black,,,'004005,0,shopify,0,deny,manual,295.00,400.00,true,true,"",https://cdn.shopify.com/s/files/1/2205/2399/products/Karvin-sweatshirt-greek-_1.jpg?v=1509703933,2,,,,,,,,,,,,,,,,,,https://cdn.shopify.com/s/files/1/2205/2399/products/sweater_w_e90db1d6-5520-4010-b9a8-a77a9608eb53.jpg?v=1509703933,kg,
alabama-tee,,,,,,,,S,,White,,,'004006,0,shopify,0,deny,manual,295.00,400.00,true,true,"",https://cdn.shopify.com/s/files/1/2205/2399/products/sweater_w_e90db1d6-5520-4010-b9a8-a77a9608eb53.jpg?v=1509703933,3,,,,,,,,,,,,,,,,,,,kg,
tia-slides-in-brandy,Tia Slides in Brandy,"Constructed in cotton sweat fabric, this lovely piece, lacus eu mattis auctor, dolor lectus venenatis nulla, at tristique eros sem vel ante. Sed leo enim, iaculis ornare tristique non, vulputate sit amet ante. Mauris placerat eleifend leo.",Cosre,"","",true,Title,Default Title,,,,,"",0,,1,deny,manual,295.00,,true,true,"",https://cdn.shopify.com/s/files/1/2205/2399/products/Easual-Sneakers_1_80983c61-e4d3-4da3-b67a-63311e93850d.jpg?v=1508493027,1,,false,,,,,,,,,,,,,,,,,kg,
tia-slides-in-brandy,,,,,,,,,,,,,,,,,,,,,,,,https://cdn.shopify.com/s/files/1/2205/2399/products/Easual-Sneakers2_0dd8aa64-40f3-47a3-ba22-570369bb146a.jpg?v=1508493027,2,,,,,,,,,,,,,,,,,,,,
tia-slides-in-brandy,,,,,,,,,,,,,,,,,,,,,,,,https://cdn.shopify.com/s/files/1/2205/2399/products/Easual-Sneakers3_801569e6-9fd1-4a34-98b1-4214c424c6e6.jpg?v=1508493027,3,,,,,,,,,,,,,,,,,,,,
tia-slides-in-brandy,,,,,,,,,,,,,,,,,,,,,,,,https://cdn.shopify.com/s/files/1/2205/2399/products/Easual-Sneakers_73eb1c18-eb4e-4757-912e-601e28a7db3f.jpg?v=1508493027,4,,,,,,,,,,,,,,,,,,,,
bells-of-ireland-jumpsuit,Bells of Ireland Jumpsuit,"Constructed in cotton sweat fabric, this lovely piece, lacus eu mattis auctor, dolor lectus venenatis nulla, at tristique eros sem vel ante. Sed leo enim, iaculis ornare tristique non, vulputate sit amet ante. Mauris placerat eleifend leo.",Cosre,"","$200-$300, Coat, L, M",true,Title,Default Title,,,,,'004002,0,,1,deny,manual,295.00,,true,true,"",https://cdn.shopify.com/s/files/1/2205/2399/products/longcoat_g.jpg?v=1508900702,1,,false,,,,,,,,,,,,,,,,,kg,
bells-of-ireland-jumpsuit,,,,,,,,,,,,,,,,,,,,,,,,https://cdn.shopify.com/s/files/1/2205/2399/products/full2.jpg?v=1508900702,2,,,,,,,,,,,,,,,,,,,,
bells-of-ireland-jumpsuit,,,,,,,,,,,,,,,,,,,,,,,,https://cdn.shopify.com/s/files/1/2205/2399/products/full3.jpg?v=1508900702,3,,,,,,,,,,,,,,,,,,,,
bells-of-ireland-jumpsuit,,,,,,,,,,,,,,,,,,,,,,,,https://cdn.shopify.com/s/files/1/2205/2399/products/full1.jpg?v=1508900702,4,,,,,,,,,,,,,,,,,,,,
sk8-mid-moc-ca-oyster-grey,Sk8 Mid Moc CA Oyster Grey,"Constructed in cotton sweat fabric, this lovely piece, lacus eu mattis auctor, dolor lectus venenatis nulla, at tristique eros sem vel ante. Sed leo enim, iaculis ornare tristique non, vulputate sit amet ante. Mauris placerat eleifend leo.",Cosre,shirts,New,true,Title,Default Title,,,,,"",0,,1,deny,manual,295.00,,true,true,"",https://cdn.shopify.com/s/files/1/2205/2399/products/Dg-Mirrored-Print_1.jpg?v=1508493172,1,,false,,,,,,,,,,,,,,,,,kg,
sk8-mid-moc-ca-oyster-grey,,,,,,,,,,,,,,,,,,,,,,,,https://cdn.shopify.com/s/files/1/2205/2399/products/Dg-Mirrored-Print2.jpg?v=1508493172,2,,,,,,,,,,,,,,,,,,,,
sk8-mid-moc-ca-oyster-grey,,,,,,,,,,,,,,,,,,,,,,,,https://cdn.shopify.com/s/files/1/2205/2399/products/Dg-Mirrored-Print3.jpg?v=1508493172,3,,,,,,,,,,,,,,,,,,,,
sk8-mid-moc-ca-oyster-grey,,,,,,,,,,,,,,,,,,,,,,,,https://cdn.shopify.com/s/files/1/2205/2399/products/Dg-Mirrored-Print.jpg?v=1508493172,4,,,,,,,,,,,,,,,,,,,,
